{
  "user":[
    {
      "name": "Eren",
      "age": 19,
      "address":
      {
        "house": 12,
        "road": 3,
        "city": "Dhaka"
      }
    },
    {
      "name": "Mikasa",
      "age": 18,
      "address":
      {
        "house": 18,
        "road": 4,
        "city": "Sylhet"
      }
    },
    {
      "name": "Armin",
      "age": 19,
      "address":
      {
        "house": 23,
        "road": 5,
        "city": "Dhaka"
      }
    }
  ]


}